{
    "app-id": "org.gnome.Podcasts.Devel",
    "runtime": "org.gnome.Platform",
    "runtime-version": "master",
    "sdk": "org.gnome.Sdk",
    "sdk-extensions": [
        "org.freedesktop.Sdk.Extension.rust-stable"
    ],
    "command": "gnome-podcasts",
    "tags": [
        "nightly"
    ],
    "finish-args": [
        "--share=network",
        "--share=ipc",
        "--socket=x11",
        "--socket=fallback-x11",
        "--socket=wayland",
        "--socket=pulseaudio"
    ],
    "build-options": {
        "append-path": "/usr/lib/sdk/rust-stable/bin",
        "build-args": [
            "--share=network"
        ],
        "cflags": "-DGDK_DISABLE_DEPRECATED -DGTK_DISABLE_DEPRECATED",
        "env": {
            "RUSTFLAGS": "",
            "RUST_BACKTRACE": "1",
            "RUST_LOG": "podcasts_gtk=debug,podcasts_data=debug,glib=debug",
            "G_MESSAGES_DEBUG" : "none",
            "G_ENABLE_DIAGNOSTIC": "1"
        }
    },
    "modules": [
        {
            "name": "libhandy",
            "buildsystem": "meson",
            "config-opts": [
                "-Dintrospection=disabled",
                "-Dgtk_doc=false",
                "-Dtests=false",
                "-Dexamples=false",
                "-Dvapi=false",
                "-Dglade_catalog=disabled"
            ],
            "cleanup": [
                "/include",
                "/lib/pkgconfig"
            ],
            "sources": [
                {
                    "type": "git",
                    "url": "https://gitlab.gnome.org/GNOME/libhandy.git",
                    "tag": "1.3.90",
                    "commit": "38fd111fefa487cb16c9d52a5cdba3a7435242a9"
                }
            ]
        },
        {
            "name": "gnome-podcasts",
            "buildsystem": "meson",
            "builddir": true,
            "config-opts": [
                "-Dprofile=development"
            ],
            "sources": [
                {
                    "type": "git",
                    "url": "https://gitlab.gnome.org/World/podcasts.git"
                }
            ]
        }
    ]
}
